#Command: "C:\Program Files (x86)\Microsoft Visual Studio\2019\Community\VC\Tools\MSVC\14.28.29333\bin\HostX86\x86\link.exe" /ERRORREPORT:PROMPT @C:\Users\lukianchuk\AppData\Local\Temp\tmp5f26fd562db14cd48d8c712d99e4ea48.rsp
^C:\!PHD\EFT\CODE\EFTDATABASE\DEBUG\DATABASE.OBJ|C:\!PHD\EFT\CODE\EFTDATABASE\DEBUG\DB_TEST_RUNNER.OBJ|C:\!PHD\EFT\CODE\EFTDATABASE\DEBUG\EFTDATABASE.OBJ|C:\!PHD\EFT\CODE\EFTDATABASE\DEBUG\ENTRYPARSER.OBJ|C:\!PHD\EFT\CODE\EFTDATABASE\DEBUG\LINEARPARAMETRISATION.OBJ|C:\!PHD\EFT\CODE\EFTDATABASE\DEBUG\QUADPARAMETRISATION.OBJ|C:\!PHD\EFT\CODE\EFTDATABASE\DEBUG\TENTRY.OBJ|C:\!PHD\EFT\CODE\EFTDATABASE\DEBUG\WIDTHORXSSENTRY.OBJ|C:\!PHD\EFT\CODE\EFTDATABASE\DEBUG\WILSONCOEFFICIENTS.OBJ
C:\!PHD\EFT\CODE\EFTDATABASE\DEBUG\EFTDATABASE.PDB
